SIM/transcript
# vsim -c tb_soc_timer_cpu -voptargs="+acc" -do "run -all; quit" 
# Start time: 08:01:37 on May 05,2026
# ** Note: (vsim-3812) Design is being optimized...
# ** Warning: ../RTL/rv32i/rv32i_top.v(285): (vopt-2685) [TFMPC] - Too few port connections for 'CU0'.  Expected 13, found 12.
# ** Warning: ../RTL/rv32i/rv32i_top.v(285): (vopt-2718) [TFMPC] - Missing connection for port 'Pcsrc'.
# ** Warning: ../RTL/rv32i/rv32i_top.v(307): (vopt-2685) [TFMPC] - Too few port connections for 'PC0'.  Expected 10, found 9.
# ** Warning: ../RTL/rv32i/rv32i_top.v(307): (vopt-2718) [TFMPC] - Missing connection for port 'Pcsrc'.
# ** Note: (vopt-143) Recognized 1 FSM in module "ahb_manager(fast)".
# ** Warning: ../RTL/SRAM/ram_top.v(136): (vopt-2685) [TFMPC] - Too few port connections for 'srama'.  Expected 15, found 12.
# ** Warning: ../RTL/SRAM/ram_top.v(136): (vopt-2718) [TFMPC] - Missing connection for port 'awr_en'.
# ** Warning: ../RTL/SRAM/ram_top.v(136): (vopt-2718) [TFMPC] - Missing connection for port 'awmask'.
# ** Warning: ../RTL/SRAM/ram_top.v(136): (vopt-2718) [TFMPC] - Missing connection for port 'adata'.
# ** Warning: ../RTL/SRAM/ram_top.v(160): (vopt-2685) [TFMPC] - Too few port connections for 'sramb'.  Expected 15, found 12.
# ** Warning: ../RTL/SRAM/ram_top.v(160): (vopt-2718) [TFMPC] - Missing connection for port 'awr_en'.
# ** Warning: ../RTL/SRAM/ram_top.v(160): (vopt-2718) [TFMPC] - Missing connection for port 'awmask'.
# ** Warning: ../RTL/SRAM/ram_top.v(160): (vopt-2718) [TFMPC] - Missing connection for port 'adata'.
# ** Note: (vopt-143) Recognized 1 FSM in module "ahb_subordinate_timer(fast)".
# ** Note: (vsim-12126) Error and warning message counts have been restored: Errors=0, Warnings=12.
# //  Questa Sim-64
# //  Version 2021.2_1 linux_x86_64 May 15 2021
# //
# //  Copyright 1991-2021 Mentor Graphics Corporation
# //  All Rights Reserved.
# //
# //  QuestaSim and its associated documentation contain trade
# //  secrets and commercial or financial information that are the property of
# //  Mentor Graphics Corporation and are privileged, confidential,
# //  and exempt from disclosure under the Freedom of Information Act,
# //  5 U.S.C. Section 552. Furthermore, this information
# //  is prohibited from disclosure under the Trade Secrets Act,
# //  18 U.S.C. Section 1905.
# //
# Loading sv_std.std
# Loading work.tb_soc_timer_cpu(fast)
# Loading work.soc_top(fast)
# Loading work.ahb_top(fast)
# Loading work.ahb_manager(fast)
# Loading work.ahb_subordinate_sram(fast)
# Loading work.ram_top(fast)
# Loading work.ram_wrapper(fast)
# Loading work.ram_inferred(fast)
# Loading work.timer_top(fast)
# Loading work.apb_slave_wait_state(fast)
# Loading work.register_module(fast)
# Loading work.cnt_ctrl(fast)
# Loading work.ahb_subordinate_timer(fast)
# Loading work.ahb_decoder(fast)
# Loading work.ahb_multiplexor(fast)
# Loading work.rv32i_top(fast)
# Loading work.Register_file(fast)
# Loading work.ALU(fast)
# Loading work.Immediate_generator(fast)
# Loading work.Sign_extend(fast)
# Loading work.Control_unit(fast)
# Loading work.ALU_control(fast)
# Loading work.PC(fast)
# Loading work.Branch_prediction(fast)
# Loading work.Instruction_memory(fast)
# Loading work.Data_memory(fast)
# Loading work.Forwarding_unit(fast)
# Loading work.Hazard_detection(fast)
# ** Warning: (vsim-3015) [PCDPC] - Port size (32) does not match connection size (30) for port 'haddr'. The port definition is at: ../RTL/SRAM/ram_wrapper.v(16).
#    Time: 0 ps  Iteration: 0  Instance: /tb_soc_timer_cpu/dut/ahb/sram/srama File: ../RTL/SRAM/ram_top.v Line: 136
# ** Warning: (vsim-3015) [PCDPC] - Port size (32) does not match connection size (30) for port 'haddr'. The port definition is at: ../RTL/SRAM/ram_wrapper.v(16).
#    Time: 0 ps  Iteration: 0  Instance: /tb_soc_timer_cpu/dut/ahb/sram/sramb File: ../RTL/SRAM/ram_top.v Line: 160
# ** Warning: (vsim-3015) [PCDPC] - Port size (32) does not match connection size (30) for port 'haddr'. The port definition is at: ../RTL/SRAM/ram_wrapper.v(16).
#    Time: 0 ps  Iteration: 0  Instance: /tb_soc_timer_cpu/dut/ahb/sram/sramc File: ../RTL/SRAM/ram_top.v Line: 185
# run -all
# ==== START SIM ====
# T=0 | PC_ADDR=00000000 | WRITE=0 | WDATA=00000000 | READY=1 | PSEL=0 PENABLE=0 PWRITE=x PADDR=xxx | wr_en=0 rd_en=0 | INT=0
# T=85000 | PC_ADDR=ffffff00 | WRITE=0 | WDATA=00000000 | READY=1 | PSEL=0 PENABLE=0 PWRITE=x PADDR=xxx | wr_en=0 rd_en=0 | INT=0
# T=95000 | PC_ADDR=00010004 | WRITE=1 | WDATA=ffffff00 | READY=1 | PSEL=0 PENABLE=0 PWRITE=x PADDR=xxx | wr_en=0 rd_en=0 | INT=0
# [CPU ACCESS] addr=00010004 write=1 wdata=ffffff00
# T=105000 | PC_ADDR=ffffffff | WRITE=0 | WDATA=00000000 | READY=1 | PSEL=0 PENABLE=0 PWRITE=x PADDR=xxx | wr_en=0 rd_en=0 | INT=0
# T=115000 | PC_ADDR=00010008 | WRITE=1 | WDATA=ffffffff | READY=x | PSEL=1 PENABLE=0 PWRITE=1 PADDR=004 | wr_en=0 rd_en=0 | INT=0
# [CPU ACCESS] addr=00010008 write=1 wdata=ffffffff
# T=125000 | PC_ADDR=00010008 | WRITE=1 | WDATA=ffffffff | READY=x | PSEL=1 PENABLE=1 PWRITE=1 PADDR=004 | wr_en=0 rd_en=0 | INT=0
# [APB] addr=004 write=1 wdata=ffffff00 rdata=00000000
# [CPU ACCESS] addr=00010008 write=1 wdata=ffffffff
# T=135000 | PC_ADDR=00010008 | WRITE=1 | WDATA=ffffffff | READY=x | PSEL=1 PENABLE=1 PWRITE=1 PADDR=004 | wr_en=1 rd_en=0 | INT=0
# [CPU ACCESS] addr=00010008 write=1 wdata=ffffffff
# [APB] addr=004 write=1 wdata=ffffff00 rdata=00000000
# T=145000 | PC_ADDR=00010008 | WRITE=1 | WDATA=ffffffff | READY=1 | PSEL=0 PENABLE=0 PWRITE=1 PADDR=004 | wr_en=0 rd_en=0 | INT=0
# [CPU ACCESS] addr=00010008 write=1 wdata=ffffffff
# T=155000 | PC_ADDR=00010010 | WRITE=1 | WDATA=ffffffff | READY=x | PSEL=1 PENABLE=0 PWRITE=1 PADDR=008 | wr_en=0 rd_en=0 | INT=0
# [CPU ACCESS] addr=00010010 write=1 wdata=ffffffff
# T=165000 | PC_ADDR=00010010 | WRITE=1 | WDATA=ffffffff | READY=x | PSEL=1 PENABLE=1 PWRITE=1 PADDR=008 | wr_en=0 rd_en=0 | INT=0
# [APB] addr=008 write=1 wdata=ffffff00 rdata=00000000
# [CPU ACCESS] addr=00010010 write=1 wdata=ffffffff
# T=175000 | PC_ADDR=00010010 | WRITE=1 | WDATA=ffffffff | READY=x | PSEL=1 PENABLE=1 PWRITE=1 PADDR=008 | wr_en=1 rd_en=0 | INT=0
# [CPU ACCESS] addr=00010010 write=1 wdata=ffffffff
# [APB] addr=008 write=1 wdata=ffffff00 rdata=00000000
# T=185000 | PC_ADDR=00010010 | WRITE=1 | WDATA=ffffffff | READY=1 | PSEL=0 PENABLE=0 PWRITE=1 PADDR=008 | wr_en=0 rd_en=0 | INT=0
# [CPU ACCESS] addr=00010010 write=1 wdata=ffffffff
# T=195000 | PC_ADDR=00000000 | WRITE=0 | WDATA=00000000 | READY=x | PSEL=1 PENABLE=0 PWRITE=1 PADDR=008 | wr_en=0 rd_en=0 | INT=0
# T=205000 | PC_ADDR=00000000 | WRITE=0 | WDATA=00000000 | READY=x | PSEL=1 PENABLE=1 PWRITE=1 PADDR=008 | wr_en=0 rd_en=0 | INT=0
# [APB] addr=008 write=1 wdata=ffffffff rdata=00000000
# T=215000 | PC_ADDR=00010014 | WRITE=1 | WDATA=ffffffff | READY=x | PSEL=1 PENABLE=1 PWRITE=1 PADDR=008 | wr_en=1 rd_en=0 | INT=0
# [CPU ACCESS] addr=00010014 write=1 wdata=ffffffff
# [APB] addr=008 write=1 wdata=ffffffff rdata=00000000
# T=225000 | PC_ADDR=00010014 | WRITE=1 | WDATA=ffffffff | READY=1 | PSEL=0 PENABLE=0 PWRITE=1 PADDR=008 | wr_en=0 rd_en=0 | INT=0
# [CPU ACCESS] addr=00010014 write=1 wdata=ffffffff
# T=235000 | PC_ADDR=00000028 | WRITE=0 | WDATA=00000000 | READY=x | PSEL=1 PENABLE=0 PWRITE=1 PADDR=010 | wr_en=0 rd_en=0 | INT=0
# T=245000 | PC_ADDR=00000028 | WRITE=0 | WDATA=00000000 | READY=x | PSEL=1 PENABLE=1 PWRITE=1 PADDR=010 | wr_en=0 rd_en=0 | INT=0
# [APB] addr=010 write=1 wdata=ffffffff rdata=00000000
# T=255000 | PC_ADDR=00000000 | WRITE=0 | WDATA=00000000 | READY=x | PSEL=1 PENABLE=1 PWRITE=1 PADDR=010 | wr_en=1 rd_en=0 | INT=0
# [APB] addr=010 write=1 wdata=ffffffff rdata=00000000
# T=265000 | PC_ADDR=00000000 | WRITE=0 | WDATA=00000000 | READY=1 | PSEL=0 PENABLE=0 PWRITE=1 PADDR=010 | wr_en=0 rd_en=0 | INT=0
# T=275000 | PC_ADDR=xxxxxxxx | WRITE=0 | WDATA=xxxxxxxx | READY=x | PSEL=1 PENABLE=0 PWRITE=1 PADDR=014 | wr_en=0 rd_en=0 | INT=0
# T=285000 | PC_ADDR=xxxxxxxx | WRITE=0 | WDATA=xxxxxxxx | READY=x | PSEL=1 PENABLE=1 PWRITE=1 PADDR=014 | wr_en=0 rd_en=0 | INT=0
# [APB] addr=014 write=1 wdata=ffffffff rdata=00000000
# T=295000 | PC_ADDR=xxxxxxxx | WRITE=0 | WDATA=xxxxxxxx | READY=x | PSEL=1 PENABLE=1 PWRITE=1 PADDR=014 | wr_en=1 rd_en=0 | INT=0
# [APB] addr=014 write=1 wdata=ffffffff rdata=00000000
# T=305000 | PC_ADDR=xxxxxxxx | WRITE=0 | WDATA=xxxxxxxx | READY=1 | PSEL=0 PENABLE=0 PWRITE=1 PADDR=014 | wr_en=0 rd_en=0 | INT=0
# ==== END SIM ====
# ** Note: $finish    : ../TB/tb_soc_timer_cpu.sv(73)
#    Time: 5050 ns  Iteration: 0  Instance: /tb_soc_timer_cpu
# End time: 08:01:37 on May 05,2026, Elapsed time: 0:00:00
# Errors: 0, Warnings: 15
