SIM/transcript
# vsim -c tb_rv32i -voptargs="+acc" -do "run -all; quit" 
# Start time: 16:40:24 on Mar 13,2026
# ** Note: (vsim-3813) Design is being optimized due to module recompilation...
# //  Questa Sim-64
# //  Version 2021.2_1 linux_x86_64 May 15 2021
# //
# //  Copyright 1991-2021 Mentor Graphics Corporation
# //  All Rights Reserved.
# //
# //  QuestaSim and its associated documentation contain trade
# //  secrets and commercial or financial information that are the property of
# //  Mentor Graphics Corporation and are privileged, confidential,
# //  and exempt from disclosure under the Freedom of Information Act,
# //  5 U.S.C. Section 552. Furthermore, this information
# //  is prohibited from disclosure under the Trade Secrets Act,
# //  18 U.S.C. Section 1905.
# //
# Loading sv_std.std
# Loading work.tb_rv32i(fast)
# Loading work.rv32i_top(fast)
# Loading work.Register_file(fast)
# Loading work.ALU(fast)
# Loading work.Immediate_generator(fast)
# Loading work.Sign_extend(fast)
# Loading work.Control_unit(fast)
# Loading work.ALU_control(fast)
# Loading work.PC(fast)
# Loading work.Branch_prediction(fast)
# Loading work.Instruction_memory(fast)
# Loading work.Data_memory(fast)
# run -all
# time	pc		instruction	ALU_result	mem_data	WRITE_DATA
# 0	00000000	00000093	00000000	00000000	00000000
# 25000	00000004	00b00113	0000000b	00000000	0000000b
# 75000	00000008	0020a023	00000000	00000000	00000000
# 125000	0000000c	01600193	00000016	00000000	00000016
# 175000	00000010	0030a223	00000004	00000000	00000004
# 225000	00000014	0000a203	00000000	0000000b	0000000b
# 275000	00000018	0040a283	00000004	00000016	00000016
# 325000	0000001c	00000013	00000000	00000000	00000000
# 375000	00000020	xxxxxxxx	xxxxxxxx	00000000	xxxxxxxx
# 425000	00000024	xxxxxxxx	xxxxxxxx	00000000	xxxxxxxx
# 475000	00000028	xxxxxxxx	xxxxxxxx	00000000	xxxxxxxx
# 525000	0000002c	xxxxxxxx	xxxxxxxx	00000000	xxxxxxxx
# 575000	00000030	xxxxxxxx	xxxxxxxx	00000000	xxxxxxxx
# 625000	00000034	xxxxxxxx	xxxxxxxx	00000000	xxxxxxxx
# 675000	00000038	xxxxxxxx	xxxxxxxx	00000000	xxxxxxxx
# 725000	0000003c	xxxxxxxx	xxxxxxxx	00000000	xxxxxxxx
# 775000	00000040	xxxxxxxx	xxxxxxxx	00000000	xxxxxxxx
# 825000	00000044	xxxxxxxx	xxxxxxxx	00000000	xxxxxxxx
# 875000	00000048	xxxxxxxx	xxxxxxxx	00000000	xxxxxxxx
# 925000	0000004c	xxxxxxxx	xxxxxxxx	00000000	xxxxxxxx
# 975000	00000050	xxxxxxxx	xxxxxxxx	00000000	xxxxxxxx
# ** Note: $finish    : ../TB/tb_rv32i.sv(30)
#    Time: 1020 ns  Iteration: 0  Instance: /tb_rv32i
# End time: 16:40:24 on Mar 13,2026, Elapsed time: 0:00:00
# Errors: 0, Warnings: 0
